Local Indicator of Stratified Power • localsp
…
## Rows: 908 Columns: 11
## ── Column specification ────────────────────────────────────────────────────────
## Delimiter: ","
## dbl (11): X, Y, GTC, Slope, Elev, LakeArea, WinTem, SumTem, Pre, Aspect, Sur...
## 
## ℹ Use `spec()` to retrieve the full column specification for this data.
## ℹ Specify the column types or set `show_col_types = FALSE` to quiet this message.
gtc = sf::st_as_sf(gtc, coords = c("X","Y"), crs = 4326)
gtc
## Simple feature collection with 908 features and 9 fields
## Geometry type: POINT
## Dimension:     XY
## Bounding box:  xmin: 69.435 ymin: 27.4918 xmax: 102.75 ymax: 37.1104
## Geodetic CRS:  WGS 84
## # A tibble: 908 × 10
##       GTC  Slope  Elev LakeArea    WinTem  SumTem   Pre   Aspect SurAlbedo
##  *  <dbl>  <dbl> <dbl>    <dbl>     <dbl>   <dbl> <dbl>    <dbl>     <dbl>
##  1 -0.766 0.0369  139.    4750.  0.00245   0.318  14.3  0.000233   0.0220 
##  2 -0.948 0.124   137.    4559.  0.00131   0.281  12.6  0.000379   0.0123 
##  3 -2.05  0.411   154.    4428.  0.000229 -0.192   7.70 0.000429   0.0121 
##  4 -0.525 0.0101  296.    4272.  0.00215   0.234  17.1  0.00130    0.0332 
##  5 -0.950 0.0597  229.    5845.  0.000472  0.0204 28.7  0.00174    0.0262 
##  6 -1.88  0.991   137.    5371.  0.000472 -0.0492 16.3  0.00174    0.0262 
##  7 -2.55  1.28    126.    5477.  0.000472 -0.294  14.5  0.00174    0.0262 
##  8 -0.909 0.0444  217.    4691.  0.00155   0.326  17.3  0.00175    0.0359 
##  9 -3.94  0.406   161.    3912. -0.000868  0.0490  7.88 0.00177    0.00379
## 10 -0.819 0.0122  153.    4066. -0.000529 -0.0356  6.40 0.00178    0.0415 
## # ℹ 898 more rows
## # ℹ 1 more variable: geometry <POINT [°]>
…
